%YAML 1.1
%TAG !u! tag:unity3d.com,2011:
--- !u!114 &11400000
MonoBehaviour:
  m_ObjectHideFlags: 0
  m_CorrespondingSourceObject: {fileID: 0}
  m_PrefabInstance: {fileID: 0}
  m_PrefabAsset: {fileID: 0}
  m_GameObject: {fileID: 0}
  m_Enabled: 1
  m_EditorHideFlags: 0
  m_Script: {fileID: 11500000, guid: 471dc34dea2f4d24ea8da3b5a00817ac, type: 3}
  m_Name: Blue
  m_EditorClassIdentifier: 
  myColor: {r: 1, g: 0, b: 0.7891059, a: 1}
  colorName: Blue
